{
	"process_id" : 43494,
	"version" : "2020.3.23f1",
	"app_path" : "/Applications/Unity/Hub/Editor/2020.3.23f1/Unity.app",
	"app_contents_path" : "/Applications/Unity/Hub/Editor/2020.3.23f1/Unity.app/Contents"
}